<svg xmlns="http://www.w3.org/2000/svg" viewBox="0 0 328.21 78.41">
  <title>xl-bil-logo</title>
  <g>
    <g>
      <path d="M28.46,39.19,2.7.66h25L41.58,22.73,55.58.66H80L54.23,39l26.88,40.1h-25l-15-23.63L26,79.07H1.58Z" transform="translate(-1.58 -0.66)" style="fill: #fff"/>
      <path d="M89.28.66H111V60h38V79H89.28Z" transform="translate(-1.58 -0.66)" style="fill: #fff"/>
    </g>
    <g>
      <path d="M320.79.66H208.12a9,9,0,0,0-6.41,2.66L171.64,33.48a9,9,0,0,0,0,12.72l0,0,30.07,30.16a9,9,0,0,0,6.41,2.66H320.79a9,9,0,0,0,9-9V9.66A9,9,0,0,0,320.79.66Zm-122,44.77a5.56,5.56,0,1,1,5.56-5.56A5.55,5.55,0,0,1,198.77,45.43ZM256.17,53a10.34,10.34,0,0,1-2.76,4.19,13.79,13.79,0,0,1-5,2.79,24.94,24.94,0,0,1-7.63,1H224.27V16.66h15.31a28.78,28.78,0,0,1,7.94.9A13,13,0,0,1,252.45,20,8.28,8.28,0,0,1,255,23.76a15,15,0,0,1,.68,4.56,11.24,11.24,0,0,1-1.24,5.18,9.41,9.41,0,0,1-4.53,3.94,13.72,13.72,0,0,1,3.47,2.11,10.73,10.73,0,0,1,2.24,2.51,9.28,9.28,0,0,1,1.12,2.79A14.55,14.55,0,0,1,257,47.8,15.84,15.84,0,0,1,256.17,53Zm15.32,8H264V16.66h7.51Zm37.94,0H280.86V16.66h7.5V54.44h22Z" transform="translate(-1.58 -0.66)" style="fill: #fff"/>
      <path d="M241.14,41h-9.62V55l8.94,0a17.1,17.1,0,0,0,4.44-.5A7.07,7.07,0,0,0,247.69,53a5.35,5.35,0,0,0,1.46-2.23,9.65,9.65,0,0,0,.43-2.92,6.69,6.69,0,0,0-1.89-5.12C246.43,41.56,244.24,41,241.14,41Z" transform="translate(-1.58 -0.66)" style="fill: #fff"/>
      <path d="M246.6,33.23a6.06,6.06,0,0,0,1.74-4.65,5.15,5.15,0,0,0-2-4.56c-1.34-.94-3.67-1.4-7-1.4h-7.82V34.83h8.94Q244.85,34.84,246.6,33.23Z" transform="translate(-1.58 -0.66)" style="fill: #fff"/>
    </g>
  </g>
</svg>
